Mercure _> r : 60j , re _> 90j axial tilt 0.01 
Venus r 243 j re 225 j  sans indirect ( dc aiguille d'une montere comme uranus ) donc + les autres -
a t 177.3 ° ( vers la gauche) 
Terre r 24h  rev 365j at (23 vers droite)
Jupi r 10 h rev 4400 j (at 3) 
saturne r 10h re 29 ans 11 000 j (at 26)
uranus r 17 h rev 84 abs  at 97 ( droite en bas) 
neptune r 16h re 164 ans  (neptune 28) 
mars r 24h + re 700 j (at 25 )
